[
  {
    "name": "/dashboarders get post",
    "resource": "/dashboarders",
    "description": "Can create and list dashboarders",
    "POST": true,
    "GET": true
  },
  {
    "name": "/dashboarders get",
    "resource": "/dashboarders",
    "description": "Can list dashboarders",
    "GET": true
  },
  {
    "name": "/dashboarders/:id get put",
    "resource": "/dashboarders/:id",
    "description": "Can get a dashboarder and update it",
    "GET": true,
    "PUT": true
  },
  {
    "name": "/organizations get post",
    "resource": "/organizations",
    "description": "Can create and list organizations",
    "POST": true,
    "GET": true
  },
  {
    "name": "/organizations get",
    "resource": "/organizations",
    "description": "Can list organizations",
    "GET": true
  },
  {
    "name": "/organizations/:id get put",
    "resource": "/organizations/:id",
    "description": "Can get a devicesentmessage and update it",
    "GET": true,
    "PUT": true
  },
  {
    "name": "/operators get post",
    "resource": "/operators",
    "description": "Can create and list operators",
    "POST": true,
    "GET": true
  },
  {
    "name": "/operators get",
    "resource": "/operators",
    "description": "Can list operators",
    "GET": true
  },
  {
    "name": "/operators/:id get put",
    "resource": "/operators/:id",
    "description": "Can get a operator and update it",
    "GET": true,
    "PUT": true
  },
  {
    "name": "/devices get post",
    "resource": "/devices",
    "description": "Can create and list devices",
    "POST": true,
    "GET": true
  },
  {
    "name": "/devices get",
    "resource": "/devices",
    "description": "Can list devices",
    "GET": true
  },
  {
    "name": "/devices/:id get put",
    "resource": "/devices/:id",
    "description": "Can get a operator and update it",
    "GET": true,
    "PUT": true
  },
  {
    "name": "/receivedmessages get post",
    "resource": "/receivedmessages",
    "description": "Can create and list receivedmessages",
    "POST": true,
    "GET": true
  },
  {
    "name": "/receivedmessages get",
    "resource": "/receivedmessages",
    "description": "Can list receivedmessages",
    "GET": true
  },
  {
    "name": "/receivedmessages/:id get put",
    "resource": "/receivedmessages/:id",
    "description": "Can get a receivedmessage and update it",
    "GET": true,
    "PUT": true
  },
  {
    "name": "/sentmessages get post",
    "resource": "/sentmessages",
    "description": "Can create and list sentmessages",
    "POST": true,
    "GET": true
  },
  {
    "name": "/sentmessages get",
    "resource": "/sentmessages",
    "description": "Can list sentmessages",
    "GET": true
  },
  {
    "name": "/sentmessages/:id get put",
    "resource": "/sentmessages/:id",
    "description": "Can get a sentmessage and update it",
    "GET": true,
    "PUT": true
  },
  {
    "name": "/shortcodes get post",
    "resource": "/shortcodes",
    "description": "Can create and list shortcodes",
    "POST": true,
    "GET": true
  },
  {
    "name": "/shortcodes get",
    "resource": "/shortcodes",
    "description": "Can list shortcodes",
    "GET": true
  },
  {
    "name": "/shortcodes/:id get put",
    "resource": "/shortcodes/:id",
    "description": "Can get a shortcode and update it",
    "GET": true,
    "PUT": true
  },

  {
    "name": "/shortCodeemailschedules get",
    "resource": "/shortCodeemailschedules",
    "description": "Can list shortCodeemailschedules",
    "GET": true
  },
  {
    "name": "/shortCodeemailschedules/:id get",
    "resource": "/shortCodeemailschedules/:id",
    "description": "Can get a shortCodeemailschedule",
    "GET": true
  },

  {
    "name": "/triagelogs get post",
    "resource": "/triagelogs",
    "description": "Can create and list triagelogs",
    "POST": true,
    "GET": true
  },
  {
    "name": "/triagelogs get",
    "resource": "/triagelogs",
    "description": "Can list triagelogs",
    "GET": true
  },
  {
    "name": "/triagelogs/:id get put",
    "resource": "/triagelogs/:id",
    "description": "Can get a triagelog and update it",
    "GET": true,
    "PUT": true
  },
  {
    "name": "/users get post",
    "resource": "/users",
    "description": "Can create and list users",
    "POST": true,
    "GET": true
  },
  {
    "name": "/users get",
    "resource": "/users",
    "description": "Can list users",
    "GET": true
  },
  {
    "name": "/users/:id get put",
    "resource": "/users/:id",
    "description": "Can get a user and update it",
    "GET": true,
    "PUT": true
  },
  {
    "name": "/accounts get post",
    "resource": "/accounts",
    "description": "Can list the accounts",
    "GET": true,
    "POST": true
  },
  {
    "name": "/accounts/:address get",
    "resource": "/accounts/:address",
    "description": "Can get one account",
    "GET": true
  },
  {
    "name": "/users/:user_id/accounts get",
    "resource": "/users/:user_id/accounts",
    "description": "Can get all accounts for a given user",
    "GET": true
  },
  {
    "name": "/me get",
    "resource": "/me",
    "description": "Can get my info",
    "GET": true
  },
  {
    "name": "/me patch",
    "resource": "/me",
    "description": "patch the user",
    "PATCH": true
  }
]