[
  {
    "username": "admin",
    "email": "admin@shaqdoonlivemonitor.com",
    "firstName": "John",
    "lastName": "Doe",
    "password": "password",
    "shortCodes": [],
    "organizations": [],
    "location": "Unknown",
    "groups": [
      "Admin",
      "User"
    ]
  },
  {
    "username": "junior",
    "email": "junior@shaqdoonlivemonitor.com",
    "firstName": "John",
    "lastName": "Doe",
    "password": "password",
    "shortCodes": [],
    "organizations": [],
    "location": "Unknown",
    "groups": [
      "User"
    ]
  },
  {
    "username": "mustafa",
    "email": "mustafa@shaqdoonlivemonitor.com",
    "firstName": "John",
    "lastName": "Doe",
    "password": "password",
    "shortCodes": [],
    "organizations": [],
    "location": "Unknown",
    "groups": [
      "User"
    ]
  }
]