{
  "type": "object",
  "properties": {
    "username": {
      "type": "string",
      "required": true,
      "minLength": 3,
      "maxLength": 64
    },
    "location": {
      "type": "string",
      "required": false
    },
    "email": {
      "type": "string",
      "required": false
    },
    "firstName": {
      "type": "string",
      "required": false
    },
    "lastName": {
      "type": "string",
      "required": false
    }
  }
}